{
  "project_info": {
    "project_number": "325987270999",
    "project_id": "avhshelpline-27bdd",
    "storage_bucket": "avhshelpline-27bdd.appspot.com"
  },
  "client": [
    {
      "client_info": {
        "mobilesdk_app_id": "1:325987270999:android:1c476b602eb9cc41603e12",
        "android_client_info": {
          "package_name": "com.exercise.avhshelpline"
        }
      },
      "oauth_client": [
        {
          "client_id": "325987270999-siknbcsoc36gen5ls53o94faadldel22.apps.googleusercontent.com",
          "client_type": 3
        }
      ],
      "api_key": [
        {
          "current_key": "AIzaSyAqS5N3lW7wGOUw9Wjjzr4x2h1GLo0XzRk"
        }
      ],
      "services": {
        "appinvite_service": {
          "other_platform_oauth_client": [
            {
              "client_id": "325987270999-siknbcsoc36gen5ls53o94faadldel22.apps.googleusercontent.com",
              "client_type": 3
            }
          ]
        }
      }
    }
  ],
  "configuration_version": "1"
}